…
## State-level estimates of median household income and poverty rate in 2010–2017

``` r
# saipe::set_api_key("<Your API Key Here>")
saipeAPI::saipe_state(year = 2010:2017, var = c("NAME", "SAEMHI_PT", "SAEPOVRTALL_PT"))
#> # A tibble: 408 x 5
#>    NAME                 SAEMHI_PT SAEPOVRTALL_PT  time state
#>    <chr>                    <dbl>          <dbl> <dbl> <chr>
#>  1 Georgia                  46252           18    2010 13   
#>  2 Alabama                  40538           18.9  2010 01   
#>  3 Alaska                   63456           11    2010 02   
#>  4 Arizona                  46787           17.6  2010 04   
#>  5 Arkansas                 38413           18.7  2010 05   
#>  6 California               57664           15.8  2010 06   
#>  7 Colorado                 54411           13.2  2010 08   
#>  8 Connecticut              64321           10.1  2010 09   
#>  9 Delaware                 56172           11.9  2010 10   
#> 10 District of Columbia     60729           18.8  2010 11   
#> # … with 398 more rows
```

## County-level data estimates of median household income and poverty rate in 2017

``` r
# saipe::set_api_key("<Your API Key Here>")
saipeAPI::saipe_county(year = 2017, var = c("NAME", "SAEMHI_PT", "SAEPOVRTALL_PT"))
#> # A tibble: 3,142 x 6
#>    NAME                      SAEMHI_PT SAEPOVRTALL_PT  time state county
#>    <chr>                         <dbl>          <dbl> <dbl> <chr> <chr> 
#>  1 Yukon-Koyukuk Census Area     37907           23.2  2017 02    290   
#>  2 Apache County                 33053           33.1  2017 04    001   
#>  3 Cochise County                48966           16.1  2017 04    003   
#>  4 Coconino County               54399           18.4  2017 04    005   
#>  5 Gila County                   38897           24.1  2017 04    007   
#>  6 Graham County                 46378           20.9  2017 04    009   
#>  7 Greenlee County               63557           10.1  2017 04    011   
#>  8 La Paz County                 36389           20.9  2017 04    012   
#>  9 Maricopa County               62221           13.5  2017 04    013   
#> 10 Mohave County                 42210           17.3  2017 04    015   
#> # … with 3,132 more rows
```

## Possible Variables and Years

``` r
# The pacakge contains a data frame that shows possible variables and variable labels
saipeAPI::saipe_vars
#> # A tibble: 47 x 5
#>    Name      Label                   Concept       Required  Predicate.Type
#>    <chr>     <chr>                   <chr>         <chr>     <chr>         
#>  1 COUNTY    County FIPS Code        Selectable G… not requ… (not a predic…
#>  2 GEOID     State+County FIPS Code  Geographic C… not requ… (not a predic…
#>  3 NAME      State or County Name    Geographic C… not requ… (not a predic…
#>  4 SAEMHI_L… Median Household Incom… Uncertainty … not requ… int           
#>  5 SAEMHI_M… Median Household Incom… Uncertainty … not requ… int           
#>  6 SAEMHI_PT Median Household Incom… Estimate      not requ… int           
#>  7 SAEMHI_U… Median Household Incom… Uncertainty … not requ… int           
#>  8 SAEPOV0_… Ages 0-17 in Poverty, … Uncertainty … not requ… int           
#>  9 SAEPOV0_… Ages 0-17 in Poverty, … Uncertainty … not requ… int           
#> 10 SAEPOV0_… Ages 0-17 in Poverty, … Estimate      not requ… int           
#> # … with 37 more rows
…
# To get a vector of all possible years
saipeAPI::saipe_years
#>  [1] 1989 1993 1995 1996 1997 1998 1999 2000 2001 2002 2003 2004 2005 2006
#> [15] 2007 2008 2009 2010 2011 2012 2013 2014 2015 2016

# Use the above two vectors to download all the US-level data
saipeAPI::saipe_us(year = saipeAPI::saipe_years, var = saipeAPI::saipe_vars$Name)
#> # A tibble: 24 x 49
#>    COUNTY GEOID NAME  SAEMHI_LB90 SAEMHI_MOE SAEMHI_PT SAEMHI_UB90
#>    <chr>  <chr> <chr>       <dbl>      <dbl>     <dbl>       <dbl>
#>  1 000    00000 Unit…       28644        262     28906       29168
#>  2 000    00000 Unit…       31001        240     31241       31481
#>  3 000    00000 Unit…       33752        324     34076       34400
#>  4 000    00000 Unit…       35198        294     35492       35786
#>  5 000    00000 Unit…       36724        281     37005       37286
#>  6 000    00000 Unit…       38507        378     38885       39263
#>  7 000    00000 Unit…       40383        313     40696       41009
#>  8 000    00000 Unit…       41773        217     41990       42207
#>  9 000    00000 Unit…       42016        212     42228       42440
#> 10 000    00000 Unit…       42180        229     42409       42638
#> # … with 14 more rows, and 42 more variables: SAEPOV0_17_LB90 <dbl>,
#> #   SAEPOV0_17_MOE <dbl>, SAEPOV0_17_PT <dbl>, SAEPOV0_17_UB90 <dbl>,
#> #   SAEPOV0_4_LB90 <dbl>, SAEPOV0_4_MOE <dbl>, SAEPOV0_4_PT <dbl>,
#> #   SAEPOV0_4_UB90 <dbl>, SAEPOV5_17R_LB90 <dbl>, SAEPOV5_17R_MOE <dbl>,
#> #   SAEPOV5_17R_PT <dbl>, SAEPOV5_17R_UB90 <dbl>, SAEPOVALL_LB90 <dbl>,
#> #   SAEPOVALL_MOE <dbl>, SAEPOVALL_PT <dbl>, SAEPOVALL_UB90 <dbl>,
#> #   SAEPOVRT0_17_LB90 <dbl>, SAEPOVRT0_17_MOE <dbl>,
#> #   SAEPOVRT0_17_PT <dbl>, SAEPOVRT0_17_UB90 <dbl>,
#> #   SAEPOVRT0_4_LB90 <dbl>, SAEPOVRT0_4_MOE <dbl>, SAEPOVRT0_4_PT <dbl>,
…
