Interface to the Census Bureau's API for Small Area Income and Poverty Estimates (SAIPE) • saipeAPI
…
State-level estimates of median household income and poverty rate in 2010–2015

# saipe::set_api_key("<Your API Key Here>")
saipeAPI::saipe_state(year = 2010:2015, var = c("NAME", "SAEMHI_PT", "SAEPOVRTALL_PT"))
#> # A tibble: 306 x 5
#>                    NAME SAEMHI_PT SAEPOVRTALL_PT  time state
#>                   <chr>     <dbl>          <dbl> <dbl> <chr>
#>  1              Alabama     40538           18.9  2010    01
#>  2               Alaska     63456           11.0  2010    02
#>  3              Arizona     46787           17.6  2010    04
#>  4             Arkansas     38413           18.7  2010    05
#>  5           California     57664           15.8  2010    06
#>  6             Colorado     54411           13.2  2010    08
#>  7          Connecticut     64321           10.1  2010    09
#>  8             Delaware     56172           11.9  2010    10
#>  9 District of Columbia     60729           18.8  2010    11
#> 10              Florida     44390           16.5  2010    12
#> # ... with 296 more rows

County-level data estimates of median household income and poverty rate in 2015

# saipe::set_api_key("<Your API Key Here>")
saipeAPI::saipe_county(year = 2015, var = c("NAME", "SAEMHI_PT", "SAEPOVRTALL_PT"))
#> # A tibble: 3,142 x 6
#>               NAME SAEMHI_PT SAEPOVRTALL_PT  time state county
#>              <chr>     <dbl>          <dbl> <dbl> <chr>  <chr>
#>  1  Autauga County     56580           12.7  2015    01    001
#>  2  Baldwin County     52387           12.9  2015    01    003
#>  3  Barbour County     31433           32.0  2015    01    005
#>  4     Bibb County     40767           22.2  2015    01    007
#>  5   Blount County     50487           14.7  2015    01    009
#>  6  Bullock County     28251           39.6  2015    01    011
#>  7   Butler County     33868           25.8  2015    01    013
#>  8  Calhoun County     42091           20.0  2015    01    015
#>  9 Chambers County     35560           22.4  2015    01    017
#> 10 Cherokee County     39144           19.4  2015    01    019
#> # ... with 3,132 more rows

Possible Variables and Years

# The pacakge contains a data frame that shows possible variables and variable labels
saipeAPI::saipe_vars
#> # A tibble: 47 x 5
#>               Name
#>              <chr>
#>  1          COUNTY
#>  2           GEOID
#>  3            NAME
#>  4     SAEMHI_LB90
#>  5      SAEMHI_MOE
#>  6       SAEMHI_PT
#>  7     SAEMHI_UB90
#>  8 SAEPOV0_17_LB90
#>  9  SAEPOV0_17_MOE
#> 10   SAEPOV0_17_PT
#> # ... with 37 more rows, and 4 more variables: Label <chr>, Concept <chr>,
#> #   Required <chr>, Predicate.Type <chr>
…
#> )
#> See spec(...) for full column specifications.
#> Parsed with column specification:
#> cols(
#>   .default = col_double(),
#>   COUNTY = col_character(),
#>   GEOID = col_character(),
#>   NAME = col_character(),
#>   STABREV = col_character(),
#>   STATE = col_character(),
#>   SUMLEV = col_character(),
#>   us = col_character()
#> )
#> See spec(...) for full column specifications.
#> # A tibble: 23 x 49
#>    COUNTY GEOID          NAME SAEMHI_LB90 SAEMHI_MOE SAEMHI_PT SAEMHI_UB90
#>     <chr> <chr>         <chr>       <dbl>      <dbl>     <dbl>       <dbl>
#>  1    000 00000 United States       28644        262     28906       29168
#>  2    000 00000 United States       31001        240     31241       31481
#>  3    000 00000 United States       33752        324     34076       34400
#>  4    000 00000 United States       35198        294     35492       35786
#>  5    000 00000 United States       36724        281     37005       37286
#>  6    000 00000 United States       38507        378     38885       39263
#>  7    000 00000 United States       40383        313     40696       41009
#>  8    000 00000 United States       41773        217     41990       42207
#>  9    000 00000 United States       42016        212     42228       42440
#> 10    000 00000 United States       42180        229     42409       42638
#> # ... with 13 more rows, and 42 more variables: SAEPOV0_17_LB90 <dbl>,
#> #   SAEPOV0_17_MOE <dbl>, SAEPOV0_17_PT <dbl>, SAEPOV0_17_UB90 <dbl>,
#> #   SAEPOV0_4_LB90 <dbl>, SAEPOV0_4_MOE <dbl>, SAEPOV0_4_PT <dbl>,
#> #   SAEPOV0_4_UB90 <dbl>, SAEPOV5_17R_LB90 <dbl>, SAEPOV5_17R_MOE <dbl>,
#> #   SAEPOV5_17R_PT <dbl>, SAEPOV5_17R_UB90 <dbl>, SAEPOVALL_LB90 <dbl>,
#> #   SAEPOVALL_MOE <dbl>, SAEPOVALL_PT <dbl>, SAEPOVALL_UB90 <dbl>,
#> #   SAEPOVRT0_17_LB90 <dbl>, SAEPOVRT0_17_MOE <dbl>,
#> #   SAEPOVRT0_17_PT <dbl>, SAEPOVRT0_17_UB90 <dbl>,
#> #   SAEPOVRT0_4_LB90 <dbl>, SAEPOVRT0_4_MOE <dbl>, SAEPOVRT0_4_PT <dbl>,
…
